C:\Users\localadmin\Desktop\ArchExample\ArchExample\src\main\java\org\example\usecase\FindRandomQuote.java
C:\Users\localadmin\Desktop\ArchExample\ArchExample\src\main\java\org\example\App.java
C:\Users\localadmin\Desktop\ArchExample\ArchExample\src\main\java\org\example\usecase\AddQuoteHandler.java
C:\Users\localadmin\Desktop\ArchExample\ArchExample\src\main\java\org\example\domain\Quote.java
C:\Users\localadmin\Desktop\ArchExample\ArchExample\src\main\java\org\example\ui\AppController.java
C:\Users\localadmin\Desktop\ArchExample\ArchExample\src\main\java\org\example\data\InMemoryQuoteRepository.java
C:\Users\localadmin\Desktop\ArchExample\ArchExample\src\main\java\org\example\domain\QuoteRepository.java
C:\Users\localadmin\Desktop\ArchExample\ArchExample\src\main\java\org\example\usecase\AddQuote.java
C:\Users\localadmin\Desktop\ArchExample\ArchExample\src\main\java\org\example\usecase\FindRandomQuoteHandler.java
